------------------------------------------------------------------------
r914537 | dfaure | 2009-01-21 12:05:57 +0000 (Wed, 21 Jan 2009) | 2 lines

backport the missing aliases needed by kmplayer

------------------------------------------------------------------------
r914548 | ahartmetz | 2009-01-21 12:47:49 +0000 (Wed, 21 Jan 2009) | 1 line

Backport HTTP authentication changes from trunk; they seem to fix more problems than they cause (none known at the moment). Revisions 910563, 913039, 914385 from trunk.
------------------------------------------------------------------------
r914588 | segato | 2009-01-21 13:13:54 +0000 (Wed, 21 Jan 2009) | 2 lines

backport of commit #914576

------------------------------------------------------------------------
r914644 | scripty | 2009-01-21 13:40:16 +0000 (Wed, 21 Jan 2009) | 1 line

SVN_SILENT made messages (.desktop file)
------------------------------------------------------------------------
r914727 | dfaure | 2009-01-21 16:48:52 +0000 (Wed, 21 Jan 2009) | 2 lines

not needed (and not well defined anyway)

------------------------------------------------------------------------
r914761 | ahartmetz | 2009-01-21 18:09:53 +0000 (Wed, 21 Jan 2009) | 1 line

Backport of commits 910708 and 913023 from trunk: Workaround for Qt bug
------------------------------------------------------------------------
r914769 | aseigo | 2009-01-21 18:24:47 +0000 (Wed, 21 Jan 2009) | 2 lines

actually need to update queueCount otherwise we just go until we run out of sources and an assert due to dequeuing an empty stack. whoops.

------------------------------------------------------------------------
r914888 | aseigo | 2009-01-21 23:53:05 +0000 (Wed, 21 Jan 2009) | 2 lines

setIsContainment creates the toolbox which now reads the config, so we need the Corona sooner to get the right config file

------------------------------------------------------------------------
r914922 | ahartmetz | 2009-01-22 02:31:50 +0000 (Thu, 22 Jan 2009) | 1 line

backport fix for bug 178229
------------------------------------------------------------------------
r915230 | lueck | 2009-01-22 15:48:26 +0000 (Thu, 22 Jan 2009) | 1 line

add lang="&language;" to article to make the markup translatable
------------------------------------------------------------------------
r915305 | dfaure | 2009-01-22 19:03:09 +0000 (Thu, 22 Jan 2009) | 2 lines

Backport KIO::put progress info fix for kmail.

------------------------------------------------------------------------
r915410 | mueller | 2009-01-22 23:20:38 +0000 (Thu, 22 Jan 2009) | 4 lines

add a workaround for cifs/samba 2.x oddity. better
fix in trunk.
BUG: 156759

------------------------------------------------------------------------
r915523 | mueller | 2009-01-23 11:12:33 +0000 (Fri, 23 Jan 2009) | 3 lines

fix '%' motion between parens - look for a word boudary as end of the
pattern in addition to whitespace and eol

------------------------------------------------------------------------
r915637 | scripty | 2009-01-23 13:13:26 +0000 (Fri, 23 Jan 2009) | 1 line

SVN_SILENT made messages (.desktop file)
------------------------------------------------------------------------
r915756 | segato | 2009-01-23 17:59:11 +0000 (Fri, 23 Jan 2009) | 2 lines

backport of commit #915753

------------------------------------------------------------------------
r915788 | chehrlic | 2009-01-23 19:19:18 +0000 (Fri, 23 Jan 2009) | 1 line

msvc compile++
------------------------------------------------------------------------
r915789 | chehrlic | 2009-01-23 19:20:25 +0000 (Fri, 23 Jan 2009) | 1 line

backport from trunk
------------------------------------------------------------------------
r915829 | chehrlic | 2009-01-23 22:22:37 +0000 (Fri, 23 Jan 2009) | 1 line

windows compile++ (backport from branch)
------------------------------------------------------------------------
r916332 | chani | 2009-01-25 04:24:22 +0000 (Sun, 25 Jan 2009) | 2 lines

disable the settings action when it's darn well supposed to be disabled

------------------------------------------------------------------------
r916476 | tbraun | 2009-01-25 12:33:29 +0000 (Sun, 25 Jan 2009) | 2 lines

backport changes from r915126

------------------------------------------------------------------------
r916506 | scripty | 2009-01-25 12:50:58 +0000 (Sun, 25 Jan 2009) | 1 line

SVN_SILENT made messages (.desktop file)
------------------------------------------------------------------------
r916641 | chehrlic | 2009-01-25 17:52:10 +0000 (Sun, 25 Jan 2009) | 1 line

it's libgmp on windows
------------------------------------------------------------------------
r916690 | mart | 2009-01-25 19:22:36 +0000 (Sun, 25 Jan 2009) | 2 lines

backport a fix to a crash when removing the currently active tab

------------------------------------------------------------------------
r916813 | aseigo | 2009-01-26 03:16:53 +0000 (Mon, 26 Jan 2009) | 3 lines

return whether the popup widget is shown as a popup, not whether it's at all visible
BUG:181884

------------------------------------------------------------------------
r916904 | scripty | 2009-01-26 13:01:53 +0000 (Mon, 26 Jan 2009) | 1 line

SVN_SILENT made messages (.desktop file)
------------------------------------------------------------------------
r917096 | pino | 2009-01-26 21:28:06 +0000 (Mon, 26 Jan 2009) | 4 lines

backport SVN commit 917094 by pino:

give it a virtual dtor, so proper deletion in subclasses is done

------------------------------------------------------------------------
r917114 | jriddell | 2009-01-26 22:10:26 +0000 (Mon, 26 Jan 2009) | 1 line

backport fix for ARM
------------------------------------------------------------------------
r917170 | dfaure | 2009-01-27 01:24:26 +0000 (Tue, 27 Jan 2009) | 5 lines

Emit the correct FilesRemoved signal if the job was aborted in the middle of its operation, otherwise
it can result in confusion and data loss (overwriting files with files that don't exist).
BUG: 118593
 (this fix will be in 4.2.1)

------------------------------------------------------------------------
r917235 | wkai | 2009-01-27 09:47:18 +0000 (Tue, 27 Jan 2009) | 1 line

backport r916368
------------------------------------------------------------------------
r917490 | winterz | 2009-01-27 22:32:23 +0000 (Tue, 27 Jan 2009) | 7 lines

backport r917486 | winterz | 2009-01-27 17:25:45 -0500 (Tue, 27 Jan 2009)

Make the mode parameter of insertAdjacentHTML case-insensitive,
for yui in non-dom mode, which happens in reviewboard.

Maksim's patch, tested by us.

------------------------------------------------------------------------
r917622 | menard | 2009-01-28 08:13:19 +0000 (Wed, 28 Jan 2009) | 4 lines

SVN commit 917619

Add an appletDestroyed signal instead of catching the destruction in containments with qobject destroyed signal.
This fix errors because we give an invalid pointer to public appletRemoved signal.
------------------------------------------------------------------------
r917772 | trueg | 2009-01-28 14:34:31 +0000 (Wed, 28 Jan 2009) | 1 line

Backport: do not store types twice
------------------------------------------------------------------------
r917849 | ehamberg | 2009-01-28 17:00:33 +0000 (Wed, 28 Jan 2009) | 2 lines

the message label can contain rich text - don't set it to plain text.

------------------------------------------------------------------------
r917964 | ppenz | 2009-01-28 21:21:13 +0000 (Wed, 28 Jan 2009) | 3 lines

Backport of SVN commit 917962:

fixed issue that the drop-down button is shown although the root of the URL is fully visible
------------------------------------------------------------------------
r917997 | dfaure | 2009-01-28 22:44:21 +0000 (Wed, 28 Jan 2009) | 2 lines

Backport fix for 181180 (shortcut handling)

------------------------------------------------------------------------
r918042 | dfaure | 2009-01-29 01:05:00 +0000 (Thu, 29 Jan 2009) | 5 lines

Fix Ctrl+U and Ctrl+I being ambiguous in pages with frames, by only setting those shortcuts in the toplevel part.
 I spent a few hours trying to make Ctrl+U show the source for the current frame while still seeing the shortcut
 associated with the "View Document Source" menuitem, but this was a complex shortcut reassignment mess.
 Instead I added  the [hidden, unfortunately] Ctrl+Shift+U for "View Frame Source".

------------------------------------------------------------------------
r918105 | hasso | 2009-01-29 09:13:05 +0000 (Thu, 29 Jan 2009) | 2 lines

Backport rev 918104 - make stat method default for FreeBSD and DragonFly.

------------------------------------------------------------------------
r918117 | dfaure | 2009-01-29 11:05:07 +0000 (Thu, 29 Jan 2009) | 4 lines

Ouch, don't handle GUI events from KJob::exec, it leads to unexpected re-entrancy and crashes. Reviewed by Kevin.
Bug 182138 not actually re-tested though.
BUG: 182138

------------------------------------------------------------------------
r918169 | ogoffart | 2009-01-29 14:12:59 +0000 (Thu, 29 Jan 2009) | 4 lines

Backport 918168.



------------------------------------------------------------------------
r918217 | mart | 2009-01-29 17:06:57 +0000 (Thu, 29 Jan 2009) | 2 lines

backport the initialization of some vars

------------------------------------------------------------------------
r918220 | scripty | 2009-01-29 17:17:20 +0000 (Thu, 29 Jan 2009) | 1 line

SVN_SILENT made messages (.desktop file)
------------------------------------------------------------------------
r918297 | dfaure | 2009-01-29 19:07:22 +0000 (Thu, 29 Jan 2009) | 2 lines

Backport 918295: fix use of uninit data in KServiceGroup

------------------------------------------------------------------------
r918376 | winterz | 2009-01-29 21:56:58 +0000 (Thu, 29 Jan 2009) | 4 lines

backport SVN commit 918354 by winterz:

conditional compile with/without XRender

------------------------------------------------------------------------
r918379 | winterz | 2009-01-29 22:02:42 +0000 (Thu, 29 Jan 2009) | 4 lines

backport SVN commit 918363 by winterz:

add a feature logging message for XRender.

------------------------------------------------------------------------
r918403 | dfaure | 2009-01-29 22:17:29 +0000 (Thu, 29 Jan 2009) | 4 lines

Fix "klauncher hangs when kdeinit4 dies" -- this happened because klauncher was doing a blocking read forever.
Doing a select() before each read() makes klauncher abort 30s after kdenit4 dies than block forever.
Of course the real bug is whatever makes kdeinit4 crash, but at least this makes KDE useable again when this happens.

------------------------------------------------------------------------
r918506 | ilic | 2009-01-30 00:00:08 +0000 (Fri, 30 Jan 2009) | 5 lines

Do not use qputenv, as it leaks memory.
Instead allocate environment string only once, use putenv,
and then just change the string.
(bport: 918505)

------------------------------------------------------------------------
r918654 | dfaure | 2009-01-30 12:46:15 +0000 (Fri, 30 Jan 2009) | 7 lines

Repair klauncher support for unique-applications like konsole.
  (adding org.kde.konsole in konsole.desktop was just a workaround, org.kde is still assumed when not present)
Brown paper bag for me - now expecting tons of new klauncher error reports from 4.2.0... :(
Fix will be in 4.2.1.
CCBUG: 162729
CCBUG: 75492

------------------------------------------------------------------------
r918672 | dfaure | 2009-01-30 13:27:03 +0000 (Fri, 30 Jan 2009) | 3 lines

Fix compilation with QT_NO_CAST_FROM_ASCII, thus fixing a huge amount of wrong QString/QByteArray
conversions (i.e. probable bugs on non-latin1 systems).

------------------------------------------------------------------------
r918779 | dfaure | 2009-01-30 18:43:56 +0000 (Fri, 30 Jan 2009) | 3 lines

Mount vfat devices with shortname=mixed otherwise copying uppercase dirs to them breaks (181942); patch is from 168914, approved by Kevin.
CCBUG: 181942, 168914

------------------------------------------------------------------------
r918827 | kossebau | 2009-01-30 19:57:54 +0000 (Fri, 30 Jan 2009) | 1 line

backport of 918826: fixed: missing CamelCase include for dnssd/servicetypebrowser.h
------------------------------------------------------------------------
r918838 | dfaure | 2009-01-30 20:28:25 +0000 (Fri, 30 Jan 2009) | 5 lines

Fix regression introduced by r910248; two bools (b_checkUpdates and bCheckUpdates) for the same thing,
and b_checkUpdates was always false, so the directories were never watched, and people had to run
kbuildsycoca4 by hand after installing new desktop files.
BUG: 182472

------------------------------------------------------------------------
r918950 | kossebau | 2009-01-31 02:43:08 +0000 (Sat, 31 Jan 2009) | 2 lines

backport of 918949: apidox fix: resolve() is not async, but sync

------------------------------------------------------------------------
r919189 | berendsen | 2009-01-31 15:20:42 +0000 (Sat, 31 Jan 2009) | 2 lines

Forgot to install the lilypond.js (that was already added to trunk before branching 4.2)

------------------------------------------------------------------------
r919700 | aseigo | 2009-02-01 14:56:57 +0000 (Sun, 01 Feb 2009) | 2 lines

improved context menu handling

------------------------------------------------------------------------
r919762 | aacid | 2009-02-01 16:04:00 +0000 (Sun, 01 Feb 2009) | 2 lines

Add context here, From and To are too general words and we don't want kdelibs to pollute every other catalog

------------------------------------------------------------------------
r919779 | aacid | 2009-02-01 16:15:05 +0000 (Sun, 01 Feb 2009) | 2 lines

Back and Forward are too common words, need context to not pollute the rest of programs translations

------------------------------------------------------------------------
r919946 | sebas | 2009-02-01 21:58:14 +0000 (Sun, 01 Feb 2009) | 4 lines

Make sure the source applet still exists

backported from trunk

------------------------------------------------------------------------
r920287 | ogoffart | 2009-02-02 16:49:56 +0000 (Mon, 02 Feb 2009) | 6 lines

Backport r920285
Create a default component if there is none.

CCBUG: 920285


------------------------------------------------------------------------
r920345 | zwabel | 2009-02-02 19:12:08 +0000 (Mon, 02 Feb 2009) | 5 lines

Backport r920332:
- Correctly extract the text of custom groups
This makes the custom grouping work properly.
- Paint group-header text over all columns. This makes the group-headers show up completely even if the prefix-column is very small.

------------------------------------------------------------------------
r920375 | aacid | 2009-02-02 19:45:35 +0000 (Mon, 02 Feb 2009) | 4 lines

You need this here or otherwise your docbooks do not compile

CCMAIL: grossard@kde.org

------------------------------------------------------------------------
r920382 | ehamberg | 2009-02-02 19:57:35 +0000 (Mon, 02 Feb 2009) | 4 lines

escape text before showing it in the qlabel.
backport of r920371.


------------------------------------------------------------------------
r920391 | ehamberg | 2009-02-02 20:18:31 +0000 (Mon, 02 Feb 2009) | 5 lines

reset "sticky column" value in all motion methods with horizontal movement

backport of r920372.


------------------------------------------------------------------------
r920407 | laane | 2009-02-02 21:12:36 +0000 (Mon, 02 Feb 2009) | 4 lines


Let's add an entity.


------------------------------------------------------------------------
r920467 | kossebau | 2009-02-02 23:01:53 +0000 (Mon, 02 Feb 2009) | 2 lines

backport of 920463: fixed apidox: the string returned for unknow things is empty, not null

------------------------------------------------------------------------
r920601 | darioandres | 2009-02-03 11:38:53 +0000 (Tue, 03 Feb 2009) | 5 lines

Backport of SVN commit 920600 to 4.2branch
Properly resize the preview-widget on dialog resizeEvent
BUG: 160400


------------------------------------------------------------------------
r920747 | dfaure | 2009-02-03 18:14:16 +0000 (Tue, 03 Feb 2009) | 2 lines

Backport better handling of <Tab> in klineedit/kcompletionbox (fixing 167135 while still making 65877 work)

------------------------------------------------------------------------
r920768 | darioandres | 2009-02-03 19:02:26 +0000 (Tue, 03 Feb 2009) | 6 lines

Backport of SVN commit 920766 to 4.2 branch
Added default location to smb.conf under FreeBSD
Loop over the default locations instead of having lot of if/else blocks
BUG: 183006


------------------------------------------------------------------------
r920798 | darioandres | 2009-02-03 19:55:28 +0000 (Tue, 03 Feb 2009) | 5 lines

Backport of SVN commit 920789 to 4.2branch
Doing the things properly as suggested by Friedrich W. H. Kossebau
CCBUG: 183006


------------------------------------------------------------------------
r920815 | woebbe | 2009-02-03 20:43:02 +0000 (Tue, 03 Feb 2009) | 3 lines

wrong branch for @since 4.3 ;-)

CCMAIL:faure@kde.org
------------------------------------------------------------------------
r920839 | zwabel | 2009-02-03 21:32:39 +0000 (Tue, 03 Feb 2009) | 2 lines

Only put items into a custom group when grouping is actually enabled. If grouping is disabled, all items should go into the ungrouped group, else they won't be visible.

------------------------------------------------------------------------
r920881 | abizjak | 2009-02-03 23:03:25 +0000 (Tue, 03 Feb 2009) | 8 lines

backport 916941

Don't wait for startup complete, it makes the applet obtain
proper geometry too late, which causes the desktop applet positioning
algorithm to calculate a wrong initial position.
BUG: 181854


------------------------------------------------------------------------
r920990 | dfaure | 2009-02-04 09:24:25 +0000 (Wed, 04 Feb 2009) | 2 lines

KDirWatch is quite verbose on kde startup, especially now that kded is fixed

------------------------------------------------------------------------
r921138 | dfaure | 2009-02-04 15:35:12 +0000 (Wed, 04 Feb 2009) | 7 lines

Backport r915356+915400+915818:
fix duplicated applications in the K menu and in keditfiletype, because kded was
creating kservices with absolute paths and not letting local ones override global ones.
BUG: 179946
BUG: 179462
BUG: 182060

------------------------------------------------------------------------
r921209 | kbal | 2009-02-04 16:16:54 +0000 (Wed, 04 Feb 2009) | 1 line

add entity to make plasma doc compile
------------------------------------------------------------------------
r921252 | chehrlic | 2009-02-04 16:49:43 +0000 (Wed, 04 Feb 2009) | 1 line

backport (the important parts for BUG 183018) from trunk 
------------------------------------------------------------------------
r921411 | mpyne | 2009-02-05 00:46:49 +0000 (Thu, 05 Feb 2009) | 4 lines

Backport fix for bug 168968 to KDE 4.2.1.

BUG:168968

------------------------------------------------------------------------
r921423 | zwabel | 2009-02-05 01:42:45 +0000 (Thu, 05 Feb 2009) | 5 lines

Backport r921422:
Do not reset the completion-model at the beginning of createGroups, only at the end.
Generally call reset() a bit less often.
This fixes flickering of the argument-hint widget, which was hidden+shown with each added character in some cases

------------------------------------------------------------------------
r921539 | ogoffart | 2009-02-05 08:29:15 +0000 (Thu, 05 Feb 2009) | 5 lines

backport 921534.
Fix KNotificationManager with Qt4.5
CCBUG: 183042 


------------------------------------------------------------------------
r921561 | scripty | 2009-02-05 08:38:18 +0000 (Thu, 05 Feb 2009) | 1 line

SVN_SILENT made messages (.desktop file)
------------------------------------------------------------------------
r921770 | mpyne | 2009-02-05 16:26:00 +0000 (Thu, 05 Feb 2009) | 4 lines

Backport fix for bug 183088 to KDE 4.2.1.

BUG:183088

------------------------------------------------------------------------
r921781 | shaforo | 2009-02-05 17:02:06 +0000 (Thu, 05 Feb 2009) | 3 lines

backport my patch so that users can get properly working Lokalize from trunk less painfully


------------------------------------------------------------------------
r921814 | mpyne | 2009-02-05 18:30:26 +0000 (Thu, 05 Feb 2009) | 4 lines

Backport fix for bug 179800 (Memory leak in KPluginSelector) to KDE 4.2.1.

BUG:179800

------------------------------------------------------------------------
r921839 | ppenz | 2009-02-05 19:23:14 +0000 (Thu, 05 Feb 2009) | 3 lines

Backport of SVN commit 921833: Assure that the signal urlChanged() is not emitted if the URLs are equal. The (more expensive) check below fails for invalid URLs and hence an endless loop can be triggered in applications like Dolphin.

CCBUG: 171160 
------------------------------------------------------------------------
r921841 | ppenz | 2009-02-05 19:32:12 +0000 (Thu, 05 Feb 2009) | 3 lines

Backport of SVN commit 921837: rename the input parameter 'url' to 'newUrl' to prevent confusions with the method KUrlNavigator::url()

CCBUG: 171160 
------------------------------------------------------------------------
r921879 | zwabel | 2009-02-05 21:24:50 +0000 (Thu, 05 Feb 2009) | 3 lines

Backport r921878:
Do not automatically re-start code-completion if the text has not been added directly before the cursor.

------------------------------------------------------------------------
r921956 | ilic | 2009-02-06 01:19:09 +0000 (Fri, 06 Feb 2009) | 1 line

Backporting 921955.
------------------------------------------------------------------------
r922115 | mueller | 2009-02-06 14:17:01 +0000 (Fri, 06 Feb 2009) | 2 lines

ignore link counts also with stale lockfiles

------------------------------------------------------------------------
r922299 | kossebau | 2009-02-06 17:27:15 +0000 (Fri, 06 Feb 2009) | 2 lines

backport of r920468: fixed: the name for an unknown icon is empty, not "unknown" here, as also written in the apidox (dicussed on k-c-d)

------------------------------------------------------------------------
r922443 | sengels | 2009-02-07 02:31:56 +0000 (Sat, 07 Feb 2009) | 3 lines

backport r922442
when using the native file dialog, show an 'All supported files' entry and make it the first entry by default

------------------------------------------------------------------------
r922551 | scripty | 2009-02-07 08:47:44 +0000 (Sat, 07 Feb 2009) | 1 line

SVN_SILENT made messages (.desktop file)
------------------------------------------------------------------------
r922857 | orlovich | 2009-02-07 17:26:23 +0000 (Sat, 07 Feb 2009) | 3 lines

Add a gdb-callable hook to force the JS debugger into action.


------------------------------------------------------------------------
r922874 | orlovich | 2009-02-07 17:59:41 +0000 (Sat, 07 Feb 2009) | 3 lines

Fix contentDocument on hidden <object's> (no bug report known, notice in code when studying something else)


------------------------------------------------------------------------
r922888 | orlovich | 2009-02-07 18:21:18 +0000 (Sat, 07 Feb 2009) | 8 lines

Google maps seems to wants the DOM objects' prototypes' constructor properties to point 
to something other than the default Object constructor. Make them point to the Node pseudoctor
for now. Probably want to give it more distinct values later on, but that's better done 
w/autogen.

BUG:176730
BUG:183251

------------------------------------------------------------------------
r922902 | orlovich | 2009-02-07 18:58:29 +0000 (Sat, 07 Feb 2009) | 3 lines

Fix crash when we create a sparse array w/o a dense vector component, and then access [0].
BUG:180605

------------------------------------------------------------------------
r922913 | orlovich | 2009-02-07 19:30:09 +0000 (Sat, 07 Feb 2009) | 3 lines

Don't crash if someone tries to set body to a non-Node
BUG:183457

------------------------------------------------------------------------
r922955 | orlovich | 2009-02-07 22:44:40 +0000 (Sat, 07 Feb 2009) | 12 lines

Some fixes for our stylesheets collection to fix  http://www.webtoolkit.eu/wt:

1) Make sure that we create a stylesheet object even for empty <style> elements
2) Keep track of dirtiness of stylesheets list separately from that of the style selector,
and make sure to rebuild it if the collection is accessed. While I am at it, 
instead of having confusingly similarly named recalcStyleSelector and 
rebuildStyleSelector, have rebuildStyleSelector and rebuildStyleSheetList, 
the difference between which should be evident. Also make them private.
(Though updateStyleSelector is not renamed, so things aren't 100% clear, still)

BUG: 182230

------------------------------------------------------------------------
r923396 | orlovich | 2009-02-08 17:58:51 +0000 (Sun, 08 Feb 2009) | 4 lines

Source has worked on QPixmap's for a while now --- this uber-slow
workaround should no longer be triggered unconditionally. Removing it 
should hopefully make things much smoother. 

------------------------------------------------------------------------
r923485 | habacker | 2009-02-08 20:50:28 +0000 (Sun, 08 Feb 2009) | 1 line

backported r908543: fixed bug not converting kde based file type filter into qt based filter as required
------------------------------------------------------------------------
r923980 | dfaure | 2009-02-09 20:45:59 +0000 (Mon, 09 Feb 2009) | 3 lines

Respect dir-specific icons (e.g. .directory files), but without breaking remote urls like r907513 did in trunk.
CCBUG: 157283

------------------------------------------------------------------------
r923996 | lueck | 2009-02-09 21:06:19 +0000 (Mon, 09 Feb 2009) | 1 line

make capitalization of KTimetracker consistent with other entities
------------------------------------------------------------------------
r924023 | orlovich | 2009-02-09 22:00:26 +0000 (Mon, 09 Feb 2009) | 5 lines

<frameset onload=> should set a window event listener, not a DOM one.
Fixes #183455 (http://www.fixprotocol.org/FIXimate3.0/)
We can also remove the special memory management stuff here, since we're no longer
captured.

------------------------------------------------------------------------
r924047 | neundorf | 2009-02-09 22:42:26 +0000 (Mon, 09 Feb 2009) | 5 lines

explicitely set CMP0011 to OLD, so we don't get the warning printed out with cmake >= 2.6.3 (but the behaviour is not changed by this)

Alex


------------------------------------------------------------------------
r924444 | dfaure | 2009-02-10 20:11:52 +0000 (Tue, 10 Feb 2009) | 2 lines

backport docu

------------------------------------------------------------------------
r924599 | scripty | 2009-02-11 08:18:52 +0000 (Wed, 11 Feb 2009) | 1 line

SVN_SILENT made messages (.desktop file)
------------------------------------------------------------------------
r925099 | dfaure | 2009-02-12 12:53:36 +0000 (Thu, 12 Feb 2009) | 4 lines

Add one letter to fix one bug:
 Wrong error message when mkdir fails because a broken symlink exists with that name
BUG: 122837

------------------------------------------------------------------------
r925208 | coolo | 2009-02-12 18:21:32 +0000 (Thu, 12 Feb 2009) | 2 lines

make this a dummy function with qt 4.5 (removed completely in trunk)

------------------------------------------------------------------------
r925230 | karunakar | 2009-02-12 20:03:10 +0000 (Thu, 12 Feb 2009) | 2 lines

Add entry for language Chhattisgarhi (hne)

------------------------------------------------------------------------
r925370 | scripty | 2009-02-13 07:34:39 +0000 (Fri, 13 Feb 2009) | 1 line

SVN_SILENT made messages (.desktop file)
------------------------------------------------------------------------
r925562 | dfaure | 2009-02-13 14:33:16 +0000 (Fri, 13 Feb 2009) | 2 lines

Backport fix for 151851 (icon not updated after overwrite)

------------------------------------------------------------------------
r925692 | winterz | 2009-02-13 21:33:39 +0000 (Fri, 13 Feb 2009) | 7 lines

backport SVN commit 925654 by tilladam:

When using the QFileSystemWatcher backend of KDirWatch, trust it to correctly
notify us when a file or diretory changes, instead of second guessing it based
on mtime. Adding a file to a directory does not always update the directory
mtime, for example, which makes this check fail in some situations.

------------------------------------------------------------------------
r925796 | scripty | 2009-02-14 08:42:31 +0000 (Sat, 14 Feb 2009) | 1 line

SVN_SILENT made messages (.desktop file)
------------------------------------------------------------------------
r926101 | orlovich | 2009-02-14 17:07:00 +0000 (Sat, 14 Feb 2009) | 2 lines

Not needed anymore --- forgot to include with the last commit

------------------------------------------------------------------------
r926127 | orlovich | 2009-02-14 17:43:07 +0000 (Sat, 14 Feb 2009) | 8 lines

Fix debugger crashes during parse errors. In particular, it means 
reportSourceParsed can't rely on there being an AST; and ditto
for reportException. Also fix the code to report the top-level 
parse errors to the debugger; and adjust the debugger UI to 
handle these cases properly, by just displaying the code (and not 
getting confused trying to stop non-running code)
BUG: 175578

------------------------------------------------------------------------
r926130 | orlovich | 2009-02-14 17:53:04 +0000 (Sat, 14 Feb 2009) | 6 lines

Remove this hack; I don't want it anyway, and having it can cause the going-back buginess to crash;
with it gone is will 'merely' lead to JS errors, so the restore code for frames still needs rework,
but at least it removes the major stability issue.

CCBUG:170185

------------------------------------------------------------------------
r926141 | orlovich | 2009-02-14 18:06:24 +0000 (Sat, 14 Feb 2009) | 3 lines

We want the sidebar property writeable (but also DontEnum)
BUG: 183993

------------------------------------------------------------------------
r926156 | orlovich | 2009-02-14 18:44:06 +0000 (Sat, 14 Feb 2009) | 4 lines

Make createContextualFragment work when called on a Range starting with a document;
needed by some tinyMce code (unfortunately, it also needs a full selection object)
Thanks to Emil Sedgh for reducing/extracting this case...

------------------------------------------------------------------------
r926165 | orlovich | 2009-02-14 18:58:31 +0000 (Sat, 14 Feb 2009) | 3 lines

- Better tracing of this assert
- Remove tracing stuff that's redundant with KJS_VERBOSE

------------------------------------------------------------------------
r926278 | orlovich | 2009-02-14 23:25:53 +0000 (Sat, 14 Feb 2009) | 3 lines

Make sure to clear dirtiness early since we may recurse. Fixes the DOM tree viewer 
infinite recursion regression.

------------------------------------------------------------------------
r926292 | orlovich | 2009-02-15 00:09:06 +0000 (Sun, 15 Feb 2009) | 3 lines

Doh. Mark self first. 
BUG:172268

------------------------------------------------------------------------
r926629 | pino | 2009-02-15 21:35:03 +0000 (Sun, 15 Feb 2009) | 2 lines

ibex -> intrepid, and add jaunty

------------------------------------------------------------------------
r926651 | alexmerry | 2009-02-15 22:10:43 +0000 (Sun, 15 Feb 2009) | 3 lines

Backport r926643: initialize _all_ icon groups, otherwise valgrind complains.


------------------------------------------------------------------------
r926677 | zwabel | 2009-02-15 23:00:43 +0000 (Sun, 15 Feb 2009) | 1 line

Backport r926676: Match-qualities can be computed even if there are no arguments
------------------------------------------------------------------------
r926761 | mpyne | 2009-02-16 05:06:35 +0000 (Mon, 16 Feb 2009) | 5 lines

Backport fix for KFileWidget bug to KDE 4.2.1.

The bug in question is that using the mousewheel on the icon size slider does not update the tool tip text.
No strings affected.

------------------------------------------------------------------------
r926808 | dfaure | 2009-02-16 11:01:01 +0000 (Mon, 16 Feb 2009) | 2 lines

SVN_SILENT ++silent

------------------------------------------------------------------------
r926922 | dfaure | 2009-02-16 12:50:03 +0000 (Mon, 16 Feb 2009) | 2 lines

Backport r907918 (makes the code more logical)

------------------------------------------------------------------------
r926923 | dfaure | 2009-02-16 12:50:26 +0000 (Mon, 16 Feb 2009) | 2 lines

Backport apidox fixes

------------------------------------------------------------------------
r926924 | dfaure | 2009-02-16 12:50:57 +0000 (Mon, 16 Feb 2009) | 2 lines

backport apidox + qDebug fix

------------------------------------------------------------------------
r926927 | dfaure | 2009-02-16 12:53:36 +0000 (Mon, 16 Feb 2009) | 2 lines

apidox backport

------------------------------------------------------------------------
r926934 | dfaure | 2009-02-16 12:55:19 +0000 (Mon, 16 Feb 2009) | 2 lines

backport fix for #180232: close button, not ok/cancel.

------------------------------------------------------------------------
r926942 | dfaure | 2009-02-16 12:57:21 +0000 (Mon, 16 Feb 2009) | 2 lines

SVN_SILENT another apidox backport

------------------------------------------------------------------------
r926945 | dfaure | 2009-02-16 12:59:29 +0000 (Mon, 16 Feb 2009) | 2 lines

Backport r926807, r926813, and related commits: startup notification fix, full path / relative name confusion, etc.

------------------------------------------------------------------------
r926999 | orlovich | 2009-02-16 14:35:03 +0000 (Mon, 16 Feb 2009) | 5 lines

Make sure we don't do any extra blocking reads if we still have buffered data to process; 
fixes freezes on websites with extremely small reply headers, like abclinuxu.cz

BUG:180631

------------------------------------------------------------------------
r927026 | zwabel | 2009-02-16 16:58:36 +0000 (Mon, 16 Feb 2009) | 1 line

Make best-matches compution also work in ungrouped completion mode. In that case, just move the best matches to the top.
------------------------------------------------------------------------
r927042 | dfaure | 2009-02-16 17:32:53 +0000 (Mon, 16 Feb 2009) | 2 lines

fix incomplete backport

------------------------------------------------------------------------
r927049 | chehrlic | 2009-02-16 17:57:16 +0000 (Mon, 16 Feb 2009) | 4 lines

backport r926574 from trunk
windows only:
kurl: no need to call QDir::fromNativeSeparators() twice
kfiledialog: set the correct start dir
------------------------------------------------------------------------
r927051 | chehrlic | 2009-02-16 18:01:07 +0000 (Mon, 16 Feb 2009) | 4 lines

backport r926419 from trunk
fix kurlnavigator on windows
- don't convert a KUrl to a QString and later back to a KUrl as this doesn't work
- don't react on both slotReturnPressed() signals - one is enough
------------------------------------------------------------------------
r927091 | chehrlic | 2009-02-16 19:36:32 +0000 (Mon, 16 Feb 2009) | 1 line

QFile::exists() needs a QString, not a QByteArray
------------------------------------------------------------------------
r927240 | scripty | 2009-02-17 06:27:43 +0000 (Tue, 17 Feb 2009) | 1 line

SVN_SILENT made messages (.desktop file)
------------------------------------------------------------------------
r927891 | abizjak | 2009-02-18 14:01:30 +0000 (Wed, 18 Feb 2009) | 14 lines

backport revision 927886

Fix regressions introduced by 914888.

On the other hand, Corona::addItem indirectly calls Containment::itemChange,
which ends up calling AppletPrivate::mainConfigGroup, which then creates a config
group in the wrong file (plasmarc) because isContainment was not set.
This also caused a regression where removed applets reappeared on next plasma run.

Fix:
Manually set isContainment before adding the item to the corona, then
call setIsContainment with a new argument to force the initialization.


------------------------------------------------------------------------
r927932 | dfaure | 2009-02-18 15:49:23 +0000 (Wed, 18 Feb 2009) | 3 lines

Show 'l' for symlinks to directories, not 'd' (the order of the tests was wrong).
BUG: 162544

------------------------------------------------------------------------
r927974 | dfaure | 2009-02-18 17:18:52 +0000 (Wed, 18 Feb 2009) | 4 lines

Backport a fix and a bunch of debug messages in case of asserts, to get more input from users hitting them.
Please update and try again, and report the output from dolphin or konqueror (which can be in ~/.xsession-errors)
CCBUG: 181364

------------------------------------------------------------------------
r927996 | trueg | 2009-02-18 19:01:41 +0000 (Wed, 18 Feb 2009) | 1 line

Backport: Updated documentation: calling KConfigGroup::Sync is mandatory if one wants the changes to stick
------------------------------------------------------------------------
r928064 | berendsen | 2009-02-18 20:46:35 +0000 (Wed, 18 Feb 2009) | 1 line

add numericTimeSignature
------------------------------------------------------------------------
r928070 | dfaure | 2009-02-18 21:05:49 +0000 (Wed, 18 Feb 2009) | 4 lines

Fix out-of-bounds assert when smb.conf contains "path=" (empty value)
  (This fix will be in 4.2.1)
BUG: 184144

------------------------------------------------------------------------
r928110 | mrybczyn | 2009-02-18 22:22:17 +0000 (Wed, 18 Feb 2009) | 2 lines

Added entries for KSnapshot

------------------------------------------------------------------------
r928201 | trueg | 2009-02-19 06:16:54 +0000 (Thu, 19 Feb 2009) | 1 line

Commited too fast after a confusing discussion on kcd - KConfigGroup::sync does actually sync the parent config.
------------------------------------------------------------------------
r928204 | scripty | 2009-02-19 06:55:30 +0000 (Thu, 19 Feb 2009) | 1 line

SVN_SILENT made messages (.desktop file)
------------------------------------------------------------------------
r928280 | pokrzywka | 2009-02-19 11:04:08 +0000 (Thu, 19 Feb 2009) | 1 line

backported #926546 from trunk : fixed a critical GDI resource leak on Windows
------------------------------------------------------------------------
r928282 | pokrzywka | 2009-02-19 11:18:52 +0000 (Thu, 19 Feb 2009) | 1 line

backported #925603 from trunk : fix korgac crashes on Win. Generally , handle the case where the system tray icon doesn't belong to a window (like it is for korgac)
------------------------------------------------------------------------
r928338 | dfaure | 2009-02-19 12:37:51 +0000 (Thu, 19 Feb 2009) | 8 lines

Backport r928331: Fix encoding problems due to using toLocal8Bit before QCoreApplication exists.
This commit is triggered by a temporary regression in 4.5-rc1 (broke toLocal8Bit for the
rest of the application lifetime, already fixed), but even without that regression,
toLocal8Bit (or QFile::encodeName, or QLibrary) can't work properly without setlocale(LC_ALL, "")
  -> moved that call to the start of kdeinit, and added one in kioslave.

BUG: 184496

------------------------------------------------------------------------
r928370 | dfaure | 2009-02-19 13:10:32 +0000 (Thu, 19 Feb 2009) | 2 lines

Backport fix for two-digit years

------------------------------------------------------------------------
r928419 | dfaure | 2009-02-19 14:45:23 +0000 (Thu, 19 Feb 2009) | 2 lines

backport insertItems compilation fix for umbrello, reportedly

------------------------------------------------------------------------
r928629 | mrybczyn | 2009-02-19 17:19:31 +0000 (Thu, 19 Feb 2009) | 2 lines

Fixing entry for ksnapshot

------------------------------------------------------------------------
r928672 | aseigo | 2009-02-19 19:58:04 +0000 (Thu, 19 Feb 2009) | 3 lines

backport fix for br#176280
BUG:176280

------------------------------------------------------------------------
r928792 | scripty | 2009-02-20 07:20:43 +0000 (Fri, 20 Feb 2009) | 1 line

SVN_SILENT made messages (.desktop file)
------------------------------------------------------------------------
r929003 | lunakl | 2009-02-20 14:30:11 +0000 (Fri, 20 Feb 2009) | 3 lines

From tool is 0x02, not 0x20.


------------------------------------------------------------------------
r929237 | abizjak | 2009-02-20 23:24:50 +0000 (Fri, 20 Feb 2009) | 6 lines

backport revision 929233

Fix handle possibly moving to the other side if the cursor exist for a short time.
Remove the handle if the cursor goes away before we even appear, previously the handle
was kept invisible until the cursor next entered.

------------------------------------------------------------------------
r929320 | mattr | 2009-02-21 04:38:07 +0000 (Sat, 21 Feb 2009) | 6 lines

Backport the encoding detection fix.

This should be in KDE 4.2.1
BUG: 184666


------------------------------------------------------------------------
r929339 | scripty | 2009-02-21 07:29:50 +0000 (Sat, 21 Feb 2009) | 1 line

SVN_SILENT made messages (.desktop file)
------------------------------------------------------------------------
r929393 | woebbe | 2009-02-21 11:57:06 +0000 (Sat, 21 Feb 2009) | 1 line

avoid encoding trouble
------------------------------------------------------------------------
r929608 | orlovich | 2009-02-21 17:54:43 +0000 (Sat, 21 Feb 2009) | 5 lines

Make sure we properly group surrogate pairs when letting the codec 
check whether it can encode them or not, so we don't mess up 
non-BMP characters (which can show up on wikipedia, at least)
BUG: 154142

------------------------------------------------------------------------
r929627 | ahartmetz | 2009-02-21 18:41:50 +0000 (Sat, 21 Feb 2009) | 5 lines

backports:
r929601, null pointer fix in auth code
r928072, deal with nonstandard \n newlines and fix buffer overrun


------------------------------------------------------------------------
r929635 | orlovich | 2009-02-21 18:53:43 +0000 (Sat, 21 Feb 2009) | 7 lines

Remove some paranoia about file widgets being hidden:
1. Legitimate websites like to do it
2. The user can see everything being submitted in the file list
3. There were ways around it anyway.
Fixes the rapidshare.com uploader, and perhaps others.
BUG:184679

------------------------------------------------------------------------
r929669 | orlovich | 2009-02-21 20:57:51 +0000 (Sat, 21 Feb 2009) | 5 lines

Give weight preference to html in our accept header, since otherwise we may 
get feed an image when a server is making a choice...

BUG: 184860

------------------------------------------------------------------------
r929787 | scripty | 2009-02-22 07:10:03 +0000 (Sun, 22 Feb 2009) | 1 line

SVN_SILENT made messages (.desktop file)
------------------------------------------------------------------------
r929831 | ervin | 2009-02-22 10:57:20 +0000 (Sun, 22 Feb 2009) | 4 lines

Backport 929830.

BUG: 160221

------------------------------------------------------------------------
r930088 | ervin | 2009-02-22 17:16:15 +0000 (Sun, 22 Feb 2009) | 2 lines

Backport 929837.

------------------------------------------------------------------------
r930089 | ervin | 2009-02-22 17:17:54 +0000 (Sun, 22 Feb 2009) | 2 lines

Backport 929876.

------------------------------------------------------------------------
r930175 | mrybczyn | 2009-02-22 19:37:02 +0000 (Sun, 22 Feb 2009) | 2 lines

Adding 'Esc'

------------------------------------------------------------------------
r930367 | harmer | 2009-02-23 08:54:31 +0000 (Mon, 23 Feb 2009) | 2 lines

Restore KMainWindow's to the stored size rather than their default size when maximised in one direction.

------------------------------------------------------------------------
r930677 | bruggie | 2009-02-24 00:52:13 +0000 (Tue, 24 Feb 2009) | 1 line

Fixes for apidocs.
------------------------------------------------------------------------
r930711 | aseigo | 2009-02-24 02:54:13 +0000 (Tue, 24 Feb 2009) | 2 lines

backport: don't leak config dialogs that are open when the widget goes away

------------------------------------------------------------------------
r930757 | scripty | 2009-02-24 08:16:27 +0000 (Tue, 24 Feb 2009) | 1 line

SVN_SILENT made messages (.desktop file)
------------------------------------------------------------------------
r930815 | apaku | 2009-02-24 11:07:43 +0000 (Tue, 24 Feb 2009) | 5 lines

revert r930711, it breaks compilation because configDialogId() doesn't exist on
AppletPrivate.

CCMAIL:aseigo@kde.org

------------------------------------------------------------------------
r930930 | aseigo | 2009-02-24 14:19:33 +0000 (Tue, 24 Feb 2009) | 2 lines

delete the dialog

------------------------------------------------------------------------
r931031 | darioandres | 2009-02-24 16:51:23 +0000 (Tue, 24 Feb 2009) | 9 lines

Backport to 4.2branch of:
SVN commit 931026 by darioandres:

Attempt to reorganize the columns of the notification widget
The event name is always shown 100%, added tooltips with description

BUG: 164513


------------------------------------------------------------------------
r931032 | mart | 2009-02-24 16:58:06 +0000 (Tue, 24 Feb 2009) | 2 lines

backport correct margin calculation

------------------------------------------------------------------------
r931079 | darioandres | 2009-02-24 18:55:13 +0000 (Tue, 24 Feb 2009) | 3 lines

Fix include error


------------------------------------------------------------------------
r931127 | abizjak | 2009-02-24 20:31:25 +0000 (Tue, 24 Feb 2009) | 6 lines

backport revision 931126

Fix bug 184930.
The containment's screen can change after it is initially created, so make sure
it is changed in the view as well.

------------------------------------------------------------------------
r931190 | zwabel | 2009-02-24 22:35:40 +0000 (Tue, 24 Feb 2009) | 3 lines

Backport r931189:
Fix a potential crash that could happen when a completion-model was destroyed during running code-completion.

------------------------------------------------------------------------
r931214 | fredrik | 2009-02-24 23:47:21 +0000 (Tue, 24 Feb 2009) | 3 lines

Make sure the active margins are initialized in all functions that
need to do layout computations.

------------------------------------------------------------------------
r931326 | tmcguire | 2009-02-25 08:22:45 +0000 (Wed, 25 Feb 2009) | 7 lines

Backport r927894 by tmcguire from trunk to the 4.2 branch:

Un-deprecate KIO::Slave, which is still returned by the scheduler.
This fixes half a gazillion false warnings when building KMail.
Add a KDE5 todo instead.


------------------------------------------------------------------------
r931931 | ggarand | 2009-02-25 23:59:35 +0000 (Wed, 25 Feb 2009) | 18 lines

merge r921311 + r918150
---
SVN commit 921311 by ggarand:

.turn off most of the native styling of submit buttons when a custom border
 is defined in CSS - let khtml do the border styling/hover effects instead.

.emulate effect of a non standard CSS hack intended to make submit button's
 text invisible.

BUG: 155932
BUG: 175743
---
SVN commit 918150 by gkiagia:

Fix minor memory leak.


------------------------------------------------------------------------
r931932 | ggarand | 2009-02-26 00:01:25 +0000 (Thu, 26 Feb 2009) | 9 lines

automatically merged revision 921312:
prevent smooth scrolling from taking too much time when resources
are scarce.

we monitor the smooth scrolling time, and stop decelerating if it happens
to be too far behind schedule.

that way the total scrolling time shouldn't exceed ~twice the default
scrolling time (2*140ms) in the worst situation.
------------------------------------------------------------------------
r931933 | ggarand | 2009-02-26 00:02:20 +0000 (Thu, 26 Feb 2009) | 10 lines

automatically merged revision 921780:
.some refinements to submit button styling
 -use a bigger rect for unstyled button content so the text doesn't get
  mangled if the button is small.
 -adjust size heuristics to be thiner for an unstyled button

.fix painting of lineedit background with custom borders.
 The painted rectangle used to be a bit smaller than the border edge.

CCBUG: 155932
------------------------------------------------------------------------
r931938 | ggarand | 2009-02-26 00:18:45 +0000 (Thu, 26 Feb 2009) | 2 lines

automatically merged revision 931936:
better clear the widget style before deletion.
------------------------------------------------------------------------
r931940 | ggarand | 2009-02-26 00:35:25 +0000 (Thu, 26 Feb 2009) | 2 lines

automatically merged revision 931939:
versionize this fix. Allegedly not needed in Qt 4.5
------------------------------------------------------------------------
r931992 | scripty | 2009-02-26 08:02:58 +0000 (Thu, 26 Feb 2009) | 1 line

SVN_SILENT made messages (.desktop file)
------------------------------------------------------------------------
r932319 | rdale | 2009-02-26 11:11:45 +0000 (Thu, 26 Feb 2009) | 3 lines

* The default package structure of a scripting data engine needs to be a
plasmoid, otherwise custom main script names won't work

------------------------------------------------------------------------
r932373 | rharnau | 2009-02-26 13:44:47 +0000 (Thu, 26 Feb 2009) | 5 lines

Make Konqueror show correct information about whether a SSL certificate is
trusted in its SSL Information dialog. For this the matching of host name and
certificate has do be done before the meta data is sent.

BUG: 182805
------------------------------------------------------------------------
r932507 | chehrlic | 2009-02-26 20:03:06 +0000 (Thu, 26 Feb 2009) | 4 lines

backport r932505 from trunk:

Fix possible copy'n'paste problems on windows when solid backend failed to load because it then called CoUninitialize without checking if it's allowed to do so.

------------------------------------------------------------------------
r932570 | mueller | 2009-02-26 22:25:22 +0000 (Thu, 26 Feb 2009) | 2 lines

bump version

------------------------------------------------------------------------
