------------------------------------------------------------------------
r1176502 | lueck | 2010-09-18 08:22:00 +1200 (Sat, 18 Sep 2010) | 1 line

new screenshot
------------------------------------------------------------------------
r1180689 | lueck | 2010-09-29 04:47:34 +1300 (Wed, 29 Sep 2010) | 1 line

backport from trunk r1180688: add missing i18n()
------------------------------------------------------------------------
r1180738 | lueck | 2010-09-29 08:13:57 +1300 (Wed, 29 Sep 2010) | 1 line

backport r1180737: replace empty item with default item string in combobox
------------------------------------------------------------------------
