------------------------------------------------------------------------
r964663 | scripty | 2009-05-07 07:40:13 +0000 (Thu, 07 May 2009) | 1 line

SVN_SILENT made messages (.desktop file)
------------------------------------------------------------------------
r966500 | scripty | 2009-05-11 09:08:40 +0000 (Mon, 11 May 2009) | 1 line

SVN_SILENT made messages (.desktop file)
------------------------------------------------------------------------
r967312 | scripty | 2009-05-13 08:06:36 +0000 (Wed, 13 May 2009) | 1 line

SVN_SILENT made messages (.desktop file)
------------------------------------------------------------------------
r972515 | scripty | 2009-05-25 07:51:17 +0000 (Mon, 25 May 2009) | 1 line

SVN_SILENT made messages (.desktop file)
------------------------------------------------------------------------
